<?xml version="1.0" encoding="utf-8"?>
<!-- Generator: Adobe Illustrator 15.0.0, SVG Export Plug-In . SVG Version: 6.00 Build 0)  -->
<!DOCTYPE svg PUBLIC "-//W3C//DTD SVG 1.1//EN" "http://www.w3.org/Graphics/SVG/1.1/DTD/svg11.dtd">
<svg version="1.1" id="Layer_1" xmlns="http://www.w3.org/2000/svg" xmlns:xlink="http://www.w3.org/1999/xlink" x="0px" y="0px"
	 width="612px" height="792px" viewBox="0 0 612 792" enable-background="new 0 0 612 792" xml:space="preserve">
<title>Icons</title>
<rect y="195.264" fill="#FFFFFF" width="612" height="57.375"/>
<circle fill="#FFFFFF" cx="267.75" cy="223.875" r="133.875"/>
<path fill="#FFFFFF" d="M267.75,147.375c42.25,0,76.5,34.25,76.5,76.5s-34.25,76.5-76.5,76.5s-76.5-34.25-76.5-76.5
	S225.5,147.375,267.75,147.375 M267.75,90c-73.937,0-133.875,59.938-133.875,133.875S193.813,357.75,267.75,357.75
	c73.938,0,133.875-59.938,133.875-133.875S341.688,90,267.75,90L267.75,90z"/>
<rect y="539.514" fill="#FFFFFF" width="612" height="57.375"/>
<circle fill="#FFFFFF" cx="344.25" cy="568.125" r="133.875"/>
<path fill="#FFFFFF" d="M344.25,491.625c42.25,0,76.5,34.25,76.5,76.5s-34.25,76.5-76.5,76.5s-76.5-34.25-76.5-76.5
	S302,491.625,344.25,491.625 M344.25,434.25c-73.937,0-133.875,59.938-133.875,133.875S270.313,702,344.25,702
	c73.938,0,133.875-59.938,133.875-133.875S418.188,434.25,344.25,434.25L344.25,434.25z"/>
</svg>
