<?xml version="1.0" encoding="utf-8"?>
<!-- Generator: Adobe Illustrator 15.0.0, SVG Export Plug-In . SVG Version: 6.00 Build 0)  -->
<!DOCTYPE svg PUBLIC "-//W3C//DTD SVG 1.1//EN" "http://www.w3.org/Graphics/SVG/1.1/DTD/svg11.dtd">
<svg version="1.1" id="Layer_1" xmlns="http://www.w3.org/2000/svg" xmlns:xlink="http://www.w3.org/1999/xlink" x="0px" y="0px"
	 width="612px" height="792px" viewBox="0 0 612 792" enable-background="new 0 0 612 792" xml:space="preserve">
<title>Icons</title>
<path fill="#FFFFFF" d="M306,90c27.4-0.1,54.7,3.6,81.1,10.9C491.1,129.7,572.4,211,601.3,315.1c14.601,53.1,14.601,109.2,0,162.3
	C572.5,581.5,491.2,662.8,387.1,691.6c-53.1,14.601-109.2,14.601-162.3,0C120.7,662.8,39.4,581.4,10.6,477.4
	C-4,424.3-4,368.2,10.6,315.1c7-25.6,17.3-50.2,30.6-73.1C81.7,172.8,147.7,122.2,225,100.9C251.3,93.6,278.6,89.9,306,90z
	 M306,663.8c32,0.101,63.7-5.5,93.6-16.7C429.5,635.9,457.2,619.4,481.3,598.4L103.7,220.5c-21,24.1-37.4,51.8-48.7,81.7
	C26.7,377.8,34,462.1,74.9,531.7c35.4,60,92.7,103.899,159.9,122.399C258,660.6,282,663.8,306,663.8z M508.3,572
	c20.9-24.1,37.4-51.8,48.7-81.7c19.5-52.899,22-110.5,7.2-164.9c-25-91-95.9-162.3-186.8-187.6c-54.4-14.8-112-12.3-164.9,7.2
	c-29.9,11.3-57.6,27.8-81.7,48.8L508.3,572z"/>
</svg>
