<?xml version="1.0" encoding="utf-8"?>
<!-- Generator: Adobe Illustrator 15.0.0, SVG Export Plug-In . SVG Version: 6.00 Build 0)  -->
<!DOCTYPE svg PUBLIC "-//W3C//DTD SVG 1.1//EN" "http://www.w3.org/Graphics/SVG/1.1/DTD/svg11.dtd">
<svg version="1.1" id="Layer_1" xmlns="http://www.w3.org/2000/svg" xmlns:xlink="http://www.w3.org/1999/xlink" x="0px" y="0px"
	 width="612px" height="792px" viewBox="0 0 612 792" enable-background="new 0 0 612 792" xml:space="preserve">
<title>Icon</title>
<path id="details" fill="#FFFFFF" d="M306,702c-108.8,0.3-209.6-57.4-264.4-151.5C-43.8,404.7,5.3,217.2,151.1,131.9
	c23.2-13.6,48.1-24.1,74.1-31.1c53.4-14.4,109.6-14.4,162.899,0C551.2,145,647.5,313.1,603.2,476.2C566.8,610.2,444.8,702.9,306,702
	z M306,148.6c-22.1-0.1-44.2,2.9-65.5,8.9c-20.7,5.6-40.6,13.8-59.2,24.3c-37.1,21.6-68,52.4-89.5,89.5
	c-10.8,18.5-19.3,38.4-25.1,59.1c-11.9,42.9-11.9,88.2,0,131.1c5.8,20.7,14.2,40.6,25.1,59.2c21.4,36.7,52,67.3,88.7,88.7
	c18.6,10.8,38.5,19.3,59.2,25.1c42.9,11.8,88.2,11.8,131.1,0c20.9-5.5,41-13.7,59.8-24.3c36.7-21.4,67.301-52,88.7-88.7
	c10.8-18.6,19.3-38.5,25.101-59.2c11.899-42.899,11.899-88.1,0-131c-5.5-20.9-13.7-41.1-24.301-60c-21.6-37.1-52.399-68-89.5-89.5
	C412,171,392.2,162.7,371.5,156.9C350.2,151.1,328.2,148.3,306,148.6z M335.4,543.8h-58.8V362h58.6v182L335.4,543.8z M335.4,306.6
	h-58.8V248h58.6v58.6H335.4z"/>
</svg>
