<?xml version="1.0" encoding="utf-8"?>
<!-- Generator: Adobe Illustrator 21.0.0, SVG Export Plug-In . SVG Version: 6.00 Build 0)  -->
<svg version="1.1" id="Layer_1" xmlns="http://www.w3.org/2000/svg" xmlns:xlink="http://www.w3.org/1999/xlink" x="0px" y="0px"
	 viewBox="0 0 40 40" style="enable-background:new 0 0 40 40;" xml:space="preserve">
<style type="text/css">
	.st0{fill:#FFFFFF;}
</style>
<title>SDArtboard 33</title>
<g id="Layer_2">
	<path id="search" class="st0" d="M38.3,36c-0.4,0-0.9-0.2-1.2-0.5l-13-13c-4,3.1-9.6,3.5-14,0.9c-1.9-1.1-3.4-2.7-4.5-4.5
		c-0.5-0.9-1-1.9-1.3-3c-0.6-2.2-0.6-4.5,0-6.7c0.6-2.1,1.7-4,3.3-5.5c0.8-0.8,1.6-1.4,2.5-2c0.9-0.6,1.9-1,3-1.3
		c2.2-0.6,4.5-0.6,6.7,0c1.1,0.3,2.1,0.7,3,1.3c1.9,1.1,3.4,2.6,4.5,4.5c0.5,0.9,1,1.9,1.3,3c0.3,1.1,0.4,2.2,0.4,3.3
		c0,1.5-0.3,2.9-0.8,4.3c-0.4,1.2-1.1,2.3-1.8,3.4l2.4,2.3l2.2,2.2l2.4,2.4l2.4,2.4c0.8,0.8,1.4,1.5,2,2.1s1.1,1.2,1.5,1.6
		c0.6,0.7,0.7,0.9,0.7,1.1c0,0.4-0.1,0.8-0.4,1.2C39.3,35.8,38.8,36,38.3,36z M16.5,3.3c-1.2,0-2.4,0.2-3.5,0.7
		c-2.3,0.9-4.1,2.7-5,5c-1,2.3-1,4.9,0,7.2c1,2.2,2.8,4,5,4.9c2.3,1,4.9,1,7.2,0c2.2-0.9,4-2.7,4.9-4.9c1-2.3,1-4.9,0-7.2
		c-0.9-2.2-2.7-4-5-5C19,3.5,17.8,3.3,16.5,3.3z"/>
	<rect y="30" class="st0" width="4" height="10"/>
	<rect x="24" y="30" class="st0" width="4" height="10"/>
	<rect x="8" y="30" class="st0" width="4" height="6"/>
	<rect x="16" y="30" class="st0" width="4" height="6"/>
</g>
</svg>
