<?xml version="1.0" encoding="utf-8"?>
<!-- Generator: Adobe Illustrator 15.0.0, SVG Export Plug-In . SVG Version: 6.00 Build 0)  -->
<!DOCTYPE svg PUBLIC "-//W3C//DTD SVG 1.1//EN" "http://www.w3.org/Graphics/SVG/1.1/DTD/svg11.dtd">
<svg version="1.1" id="Layer_1" xmlns="http://www.w3.org/2000/svg" xmlns:xlink="http://www.w3.org/1999/xlink" x="0px" y="0px"
	 width="612px" height="792px" viewBox="0 0 612 792" enable-background="new 0 0 612 792" xml:space="preserve">
<title>Icon</title>
<path id="insight" fill="#FFFFFF" d="M343,702h-74c-8.8,0-17.5-1.7-25.6-5.2c-7.7-3.3-14.7-8-20.7-13.899
	c-5.9-5.9-10.6-12.9-13.9-20.7c-3.4-8.101-5.1-16.8-5-25.601V562.7c0.2-20.5-3.9-40.8-12.1-59.7c-8.4-18.7-20.2-35.7-34.9-50
	c-19.9-19.5-36-42.6-47.4-68.1c-11.3-25.7-17.1-53.6-16.8-81.7c-0.1-19.2,2.5-38.3,7.5-56.8c5.2-17.9,12.7-35,22.3-50.9
	c18.5-31.6,44.9-58,76.5-76.5c66.2-38.5,148-38.5,214.2,0c31.7,18.5,58,44.8,76.5,76.5c9.301,16,16.601,33.1,21.601,50.9
	c5,18.5,7.6,37.6,7.5,56.8c0.2,28.1-5.5,56-16.8,81.7c-11.4,25.5-27.5,48.6-47.4,68.1c-14.4,14.4-26,31.4-34.1,50
	c-8.101,18.8-12.301,39.1-12.101,59.5v74.1c0,8.8-1.7,17.5-5.2,25.601c-6.6,15.5-19,27.899-34.6,34.399
	C360.4,700.2,351.8,702,343,702z M260.1,590.8v45.9c0.2,4.899,4.1,8.899,9,9h74.1c4.7-0.3,8.5-4.101,8.7-8.9V590.9h-91.8V590.8
	L260.1,590.8z M258.1,534.6H354c2.9-21.6,9.3-42.6,19-62.1c11.2-21.9,25.8-41.8,43.1-59.2c14.601-14.5,26.5-31.6,35-50.3
	c8.2-18.7,12.301-38.9,12.101-59.4c0.1-21-4.101-41.9-12.4-61.2c-15.899-37.8-45.899-67.9-83.7-83.8C328,142,283.8,142,244.7,158.6
	C207,174.7,177,205,161.3,243c-8.3,19.3-12.5,40.2-12.4,61.2c-0.2,20.4,3.9,40.7,12.1,59.4c8.6,18.7,20.4,35.8,35,50.3
	c17.3,17.199,31.8,37,43,58.6c9.7,19.5,16.1,40.5,19,62.1H258.1z"/>
</svg>
