<?xml version="1.0" encoding="utf-8"?>
<!-- Generator: Adobe Illustrator 15.0.0, SVG Export Plug-In . SVG Version: 6.00 Build 0)  -->
<!DOCTYPE svg PUBLIC "-//W3C//DTD SVG 1.1//EN" "http://www.w3.org/Graphics/SVG/1.1/DTD/svg11.dtd">
<svg version="1.1" id="Layer_1" xmlns="http://www.w3.org/2000/svg" xmlns:xlink="http://www.w3.org/1999/xlink" x="0px" y="0px"
	 width="612px" height="792px" viewBox="0 0 612 792" enable-background="new 0 0 612 792" xml:space="preserve">
<title>Icons</title>
<path fill="#FFFFFF" d="M612,262.1v267.8h-19.1c-14.601,0.1-29-3.301-42.101-9.9c-13.1-6.8-24.6-16.5-33.5-28.3H369
	c-5.4,11.5-12.5,22.3-21,31.8c-8.2,9.3-17.8,17.4-28.3,24s-21.9,11.8-33.8,15.3c-12.2,3.601-24.8,5.4-37.5,5.4h-19v-153H38.3L0,396
	l38.3-19.1h191.3v-153h19.1c12.7,0,25.3,1.8,37.5,5.4c11.9,3.5,23.3,8.7,33.8,15.3s20.1,14.7,28.3,24c8.5,9.6,15.5,20.3,21,31.8
	H516.9c9.1-11.8,20.699-21.5,34-28.3c13.199-6.7,27.899-10.1,42.699-9.9H612V262.1z M573.8,304.2c-4.3,1.4-8.5,3.4-12.2,6
	c-3.3,2.3-6.399,5-9.199,8c-2.801,3-5.301,6.2-7.5,9.6l-7,11.3H342.7l-4.4-12.9c-11.2-31.3-38-54.5-70.5-61.2v262.7
	c32.6-6.7,59.3-29.9,70.5-61.2l4.4-12.9h195.2l7,11.301c2.199,3.399,4.699,6.699,7.5,9.6c2.8,3,5.899,5.6,9.199,8
	c3.801,2.6,7.9,4.6,12.2,6V304.2L573.8,304.2z"/>
</svg>
