<?xml version="1.0" encoding="utf-8"?>
<!-- Generator: Adobe Illustrator 15.0.0, SVG Export Plug-In . SVG Version: 6.00 Build 0)  -->
<!DOCTYPE svg PUBLIC "-//W3C//DTD SVG 1.1//EN" "http://www.w3.org/Graphics/SVG/1.1/DTD/svg11.dtd">
<svg version="1.1" id="Layer_1" xmlns="http://www.w3.org/2000/svg" xmlns:xlink="http://www.w3.org/1999/xlink" x="0px" y="0px"
	 width="612px" height="792px" viewBox="0 0 612 792" enable-background="new 0 0 612 792" xml:space="preserve">
<title>Icon</title>
<path id="reset" fill="#FFFFFF" d="M347,702H78.9v-72.4H347c14.3,0,28.6-1.899,42.4-5.8c13.6-3.6,26.8-9,39-16.1
	c23.699-13.9,43.5-33.601,57.399-57.4c7-12,12.5-25,16.2-38.399c7.6-27.7,7.6-57,0-84.801c-3.7-13.399-9.2-26.399-16.2-38.399
	C471.9,365,452.2,345.2,428.4,331.3c-12.101-7-25-12.5-38.4-16.2c-13.8-3.8-28.1-5.7-42.4-5.7H162.3l100.5,100.7l-45.8,46
	L33.4,272.5L217,88.9l45.9,45.9L162.3,237.2H347c127.9-0.4,232,102.9,232.4,230.899c0,0.5,0,1,0,1.5c0,20.7-2.7,41.301-8.301,61.2
	c-5.399,19.4-13.3,38-23.399,55.4c-20.101,34.5-48.9,63.2-83.4,83.399c-17.399,10.101-36,18-55.399,23.4
	C388.8,698.8,368,701.8,347,702z"/>
</svg>
